{"pagination":{"last_visible_page":66,"has_next_page":true,"current_page":1,"items":{"count":10,"total":653,"per_page":10}},"data":[{"mal_id":49233,"url":"https:\/\/myanimelist.net\/anime\/49233\/Youjo_Senki_II","images":{"jpg":{"image_url":"https:\/\/myanimelist.net\/images\/anime\/1133\/156346.jpg","small_image_url":"https:\/\/myanimelist.net\/images\/anime\/1133\/156346t.jpg","large_image_url":"https:\/\/myanimelist.net\/images\/anime\/1133\/156346l.jpg"},"webp":{"image_url":"https:\/\/myanimelist.net\/images\/anime\/1133\/156346.webp","small_image_url":"https:\/\/myanimelist.net\/images\/anime\/1133\/156346t.webp","large_image_url":"https:\/\/myanimelist.net\/images\/anime\/1133\/156346l.webp"}},"trailer":{"youtube_id":null,"url":null,"embed_url":"https:\/\/www.youtube-nocookie.com\/embed\/3-Cj3dXwQWI?enablejsapi=1&wmode=opaque&autoplay=1","images":{"image_url":null,"small_image_url":null,"medium_image_url":null,"large_image_url":null,"maximum_image_url":null}},"approved":true,"titles":[{"type":"Default","title":"Youjo Senki II"},{"type":"Synonym","title":"The Military Chronicles of a Little Girl II"},{"type":"Synonym","title":"Youjo Senki 2nd Season"},{"type":"Japanese","title":"\u5e7c\u5973\u6226\u8a18 II"},{"type":"English","title":"Saga of Tanya the Evil II"}],"title":"Youjo Senki II","title_english":"Saga of Tanya the Evil II","title_japanese":"\u5e7c\u5973\u6226\u8a18 II","title_synonyms":["The Military Chronicles of a Little Girl II","Youjo Senki 2nd Season"],"type":"TV","source":"Light novel","episodes":null,"status":"Not yet aired","airing":false,"aired":{"from":"2026-07-01T00:00:00+00:00","to":null,"prop":{"from":{"day":1,"month":7,"year":2026},"to":{"day":null,"month":null,"year":null}},"string":"Jul 2026 to ?"},"duration":"Unknown","rating":"R - 17+ (violence & profanity)","score":null,"scored_by":null,"rank":null,"popularity":1390,"members":200219,"favorites":3285,"synopsis":"Second season of Youjo Senki.","background":"","season":"summer","year":2026,"broadcast":{"day":null,"time":null,"timezone":null,"string":"Unknown"},"producers":[{"mal_id":1696,"type":"anime","name":"Kadokawa","url":"https:\/\/myanimelist.net\/anime\/producer\/1696\/Kadokawa"}],"licensors":[],"studios":[{"mal_id":1567,"type":"anime","name":"Nut","url":"https:\/\/myanimelist.net\/anime\/producer\/1567\/Nut"}],"genres":[{"mal_id":1,"type":"anime","name":"Action","url":"https:\/\/myanimelist.net\/anime\/genre\/1\/Action"},{"mal_id":10,"type":"anime","name":"Fantasy","url":"https:\/\/myanimelist.net\/anime\/genre\/10\/Fantasy"}],"explicit_genres":[],"themes":[{"mal_id":62,"type":"anime","name":"Isekai","url":"https:\/\/myanimelist.net\/anime\/genre\/62\/Isekai"},{"mal_id":38,"type":"anime","name":"Military","url":"https:\/\/myanimelist.net\/anime\/genre\/38\/Military"},{"mal_id":72,"type":"anime","name":"Reincarnation","url":"https:\/\/myanimelist.net\/anime\/genre\/72\/Reincarnation"}],"demographics":[]},{"mal_id":59193,"url":"https:\/\/myanimelist.net\/anime\/59193\/Mushoku_Tensei_III__Isekai_Ittara_Honki_Dasu","images":{"jpg":{"image_url":"https:\/\/myanimelist.net\/images\/anime\/1723\/154941.jpg","small_image_url":"https:\/\/myanimelist.net\/images\/anime\/1723\/154941t.jpg","large_image_url":"https:\/\/myanimelist.net\/images\/anime\/1723\/154941l.jpg"},"webp":{"image_url":"https:\/\/myanimelist.net\/images\/anime\/1723\/154941.webp","small_image_url":"https:\/\/myanimelist.net\/images\/anime\/1723\/154941t.webp","large_image_url":"https:\/\/myanimelist.net\/images\/anime\/1723\/154941l.webp"}},"trailer":{"youtube_id":null,"url":null,"embed_url":"https:\/\/www.youtube-nocookie.com\/embed\/4-UTuXoe5hI?enablejsapi=1&wmode=opaque&autoplay=1","images":{"image_url":null,"small_image_url":null,"medium_image_url":null,"large_image_url":null,"maximum_image_url":null}},"approved":true,"titles":[{"type":"Default","title":"Mushoku Tensei III: Isekai Ittara Honki Dasu"},{"type":"Japanese","title":"\u7121\u8077\u8ee2\u751f III \uff5e\u7570\u4e16\u754c\u884c\u3063\u305f\u3089\u672c\u6c17\u3060\u3059\uff5e"},{"type":"English","title":"Mushoku Tensei: Jobless Reincarnation Season 3"}],"title":"Mushoku Tensei III: Isekai Ittara Honki Dasu","title_english":"Mushoku Tensei: Jobless Reincarnation Season 3","title_japanese":"\u7121\u8077\u8ee2\u751f III \uff5e\u7570\u4e16\u754c\u884c\u3063\u305f\u3089\u672c\u6c17\u3060\u3059\uff5e","title_synonyms":[],"type":"TV","source":"Light novel","episodes":null,"status":"Not yet aired","airing":false,"aired":{"from":"2026-07-06T00:00:00+00:00","to":null,"prop":{"from":{"day":6,"month":7,"year":2026},"to":{"day":null,"month":null,"year":null}},"string":"Jul 6, 2026 to ?"},"duration":"Unknown","rating":"R - 17+ (violence & profanity)","score":null,"scored_by":null,"rank":null,"popularity":1543,"members":178281,"favorites":1555,"synopsis":"Third season of Mushoku Tensei: Isekai Ittara Honki Dasu.","background":"","season":"summer","year":2026,"broadcast":{"day":"Mondays","time":"00:00","timezone":"Asia\/Tokyo","string":"Mondays at 00:00 (JST)"},"producers":[{"mal_id":306,"type":"anime","name":"Magic Capsule","url":"https:\/\/myanimelist.net\/anime\/producer\/306\/Magic_Capsule"},{"mal_id":1143,"type":"anime","name":"TOHO animation","url":"https:\/\/myanimelist.net\/anime\/producer\/1143\/TOHO_animation"},{"mal_id":1444,"type":"anime","name":"Egg Firm","url":"https:\/\/myanimelist.net\/anime\/producer\/1444\/Egg_Firm"}],"licensors":[],"studios":[{"mal_id":1993,"type":"anime","name":"Studio Bind","url":"https:\/\/myanimelist.net\/anime\/producer\/1993\/Studio_Bind"}],"genres":[{"mal_id":2,"type":"anime","name":"Adventure","url":"https:\/\/myanimelist.net\/anime\/genre\/2\/Adventure"},{"mal_id":8,"type":"anime","name":"Drama","url":"https:\/\/myanimelist.net\/anime\/genre\/8\/Drama"},{"mal_id":10,"type":"anime","name":"Fantasy","url":"https:\/\/myanimelist.net\/anime\/genre\/10\/Fantasy"},{"mal_id":9,"type":"anime","name":"Ecchi","url":"https:\/\/myanimelist.net\/anime\/genre\/9\/Ecchi"}],"explicit_genres":[],"themes":[{"mal_id":62,"type":"anime","name":"Isekai","url":"https:\/\/myanimelist.net\/anime\/genre\/62\/Isekai"},{"mal_id":72,"type":"anime","name":"Reincarnation","url":"https:\/\/myanimelist.net\/anime\/genre\/72\/Reincarnation"}],"demographics":[]},{"mal_id":62516,"url":"https:\/\/myanimelist.net\/anime\/62516\/Dandadan_3rd_Season","images":{"jpg":{"image_url":"https:\/\/myanimelist.net\/images\/anime\/1671\/154516.jpg","small_image_url":"https:\/\/myanimelist.net\/images\/anime\/1671\/154516t.jpg","large_image_url":"https:\/\/myanimelist.net\/images\/anime\/1671\/154516l.jpg"},"webp":{"image_url":"https:\/\/myanimelist.net\/images\/anime\/1671\/154516.webp","small_image_url":"https:\/\/myanimelist.net\/images\/anime\/1671\/154516t.webp","large_image_url":"https:\/\/myanimelist.net\/images\/anime\/1671\/154516l.webp"}},"trailer":{"youtube_id":null,"url":null,"embed_url":null,"images":{"image_url":null,"small_image_url":null,"medium_image_url":null,"large_image_url":null,"maximum_image_url":null}},"approved":true,"titles":[{"type":"Default","title":"Dandadan 3rd Season"},{"type":"Japanese","title":"\u30c0\u30f3\u30c0\u30c0\u30f3 \u7b2c3\u671f"},{"type":"English","title":"Dan Da Dan Season 3"}],"title":"Dandadan 3rd Season","title_english":"Dan Da Dan Season 3","title_japanese":"\u30c0\u30f3\u30c0\u30c0\u30f3 \u7b2c3\u671f","title_synonyms":[],"type":"TV","source":"Manga","episodes":null,"status":"Not yet aired","airing":false,"aired":{"from":"2027-01-01T00:00:00+00:00","to":null,"prop":{"from":{"day":1,"month":1,"year":2027},"to":{"day":null,"month":null,"year":null}},"string":"2027 to ?"},"duration":"Unknown","rating":"R - 17+ (violence & profanity)","score":null,"scored_by":null,"rank":null,"popularity":2176,"members":114797,"favorites":324,"synopsis":"Third season of Dandadan.","background":"","season":null,"year":null,"broadcast":{"day":null,"time":null,"timezone":null,"string":"Unknown"},"producers":[],"licensors":[],"studios":[{"mal_id":1591,"type":"anime","name":"Science SARU","url":"https:\/\/myanimelist.net\/anime\/producer\/1591\/Science_SARU"}],"genres":[{"mal_id":1,"type":"anime","name":"Action","url":"https:\/\/myanimelist.net\/anime\/genre\/1\/Action"},{"mal_id":4,"type":"anime","name":"Comedy","url":"https:\/\/myanimelist.net\/anime\/genre\/4\/Comedy"},{"mal_id":37,"type":"anime","name":"Supernatural","url":"https:\/\/myanimelist.net\/anime\/genre\/37\/Supernatural"}],"explicit_genres":[],"themes":[],"demographics":[{"mal_id":27,"type":"anime","name":"Shounen","url":"https:\/\/myanimelist.net\/anime\/genre\/27\/Shounen"}]},{"mal_id":62516,"url":"https:\/\/myanimelist.net\/anime\/62516\/Dandadan_3rd_Season","images":{"jpg":{"image_url":"https:\/\/myanimelist.net\/images\/anime\/1671\/154516.jpg","small_image_url":"https:\/\/myanimelist.net\/images\/anime\/1671\/154516t.jpg","large_image_url":"https:\/\/myanimelist.net\/images\/anime\/1671\/154516l.jpg"},"webp":{"image_url":"https:\/\/myanimelist.net\/images\/anime\/1671\/154516.webp","small_image_url":"https:\/\/myanimelist.net\/images\/anime\/1671\/154516t.webp","large_image_url":"https:\/\/myanimelist.net\/images\/anime\/1671\/154516l.webp"}},"trailer":{"youtube_id":null,"url":null,"embed_url":null,"images":{"image_url":null,"small_image_url":null,"medium_image_url":null,"large_image_url":null,"maximum_image_url":null}},"approved":true,"titles":[{"type":"Default","title":"Dandadan 3rd Season"},{"type":"Japanese","title":"\u30c0\u30f3\u30c0\u30c0\u30f3 \u7b2c3\u671f"},{"type":"English","title":"Dan Da Dan Season 3"}],"title":"Dandadan 3rd Season","title_english":"Dan Da Dan Season 3","title_japanese":"\u30c0\u30f3\u30c0\u30c0\u30f3 \u7b2c3\u671f","title_synonyms":[],"type":"TV","source":"Manga","episodes":null,"status":"Not yet aired","airing":false,"aired":{"from":"2027-01-01T00:00:00+00:00","to":null,"prop":{"from":{"day":1,"month":1,"year":2027},"to":{"day":null,"month":null,"year":null}},"string":"2027 to ?"},"duration":"Unknown","rating":"R - 17+ (violence & profanity)","score":null,"scored_by":null,"rank":null,"popularity":2176,"members":114797,"favorites":324,"synopsis":"Third season of Dandadan.","background":"","season":null,"year":null,"broadcast":{"day":null,"time":null,"timezone":null,"string":"Unknown"},"producers":[],"licensors":[],"studios":[{"mal_id":1591,"type":"anime","name":"Science SARU","url":"https:\/\/myanimelist.net\/anime\/producer\/1591\/Science_SARU"}],"genres":[{"mal_id":1,"type":"anime","name":"Action","url":"https:\/\/myanimelist.net\/anime\/genre\/1\/Action"},{"mal_id":4,"type":"anime","name":"Comedy","url":"https:\/\/myanimelist.net\/anime\/genre\/4\/Comedy"},{"mal_id":37,"type":"anime","name":"Supernatural","url":"https:\/\/myanimelist.net\/anime\/genre\/37\/Supernatural"}],"explicit_genres":[],"themes":[],"demographics":[{"mal_id":27,"type":"anime","name":"Shounen","url":"https:\/\/myanimelist.net\/anime\/genre\/27\/Shounen"}]},{"mal_id":57584,"url":"https:\/\/myanimelist.net\/anime\/57584\/Kage_no_Jitsuryokusha_ni_Naritakute_Movie__Zankyou-hen","images":{"jpg":{"image_url":"https:\/\/myanimelist.net\/images\/anime\/1797\/156362.jpg","small_image_url":"https:\/\/myanimelist.net\/images\/anime\/1797\/156362t.jpg","large_image_url":"https:\/\/myanimelist.net\/images\/anime\/1797\/156362l.jpg"},"webp":{"image_url":"https:\/\/myanimelist.net\/images\/anime\/1797\/156362.webp","small_image_url":"https:\/\/myanimelist.net\/images\/anime\/1797\/156362t.webp","large_image_url":"https:\/\/myanimelist.net\/images\/anime\/1797\/156362l.webp"}},"trailer":{"youtube_id":null,"url":null,"embed_url":"https:\/\/www.youtube-nocookie.com\/embed\/eJFryCtdQQc?enablejsapi=1&wmode=opaque&autoplay=1","images":{"image_url":null,"small_image_url":null,"medium_image_url":null,"large_image_url":null,"maximum_image_url":null}},"approved":true,"titles":[{"type":"Default","title":"Kage no Jitsuryokusha ni Naritakute! Movie: Zankyou-hen"},{"type":"Synonym","title":"The Eminence in Shadow Movie: Lost Echoes Arc"},{"type":"Japanese","title":"\u5287\u5834\u7248 \u9670\u306e\u5b9f\u529b\u8005 \u306b\u306a\u308a\u305f\u304f\u3066\uff01\u6b8b\u97ff\u7de8"},{"type":"English","title":"The Eminence in Shadow: Lost Echoes"}],"title":"Kage no Jitsuryokusha ni Naritakute! Movie: Zankyou-hen","title_english":"The Eminence in Shadow: Lost Echoes","title_japanese":"\u5287\u5834\u7248 \u9670\u306e\u5b9f\u529b\u8005 \u306b\u306a\u308a\u305f\u304f\u3066\uff01\u6b8b\u97ff\u7de8","title_synonyms":["The Eminence in Shadow Movie: Lost Echoes Arc"],"type":"Movie","source":"Light novel","episodes":1,"status":"Not yet aired","airing":false,"aired":{"from":"2027-01-01T00:00:00+00:00","to":null,"prop":{"from":{"day":1,"month":1,"year":2027},"to":{"day":null,"month":null,"year":null}},"string":"2027"},"duration":"Unknown","rating":"R - 17+ (violence & profanity)","score":null,"scored_by":null,"rank":null,"popularity":2229,"members":110563,"favorites":838,"synopsis":"Sequel to Kage no Jitsuryokusha ni Naritakute! 2nd Season.","background":"","season":null,"year":null,"broadcast":{"day":null,"time":null,"timezone":null,"string":null},"producers":[{"mal_id":1696,"type":"anime","name":"Kadokawa","url":"https:\/\/myanimelist.net\/anime\/producer\/1696\/Kadokawa"},{"mal_id":1916,"type":"anime","name":"Kadokawa Animation","url":"https:\/\/myanimelist.net\/anime\/producer\/1916\/Kadokawa_Animation"}],"licensors":[],"studios":[{"mal_id":852,"type":"anime","name":"Nexus","url":"https:\/\/myanimelist.net\/anime\/producer\/852\/Nexus"}],"genres":[{"mal_id":1,"type":"anime","name":"Action","url":"https:\/\/myanimelist.net\/anime\/genre\/1\/Action"},{"mal_id":4,"type":"anime","name":"Comedy","url":"https:\/\/myanimelist.net\/anime\/genre\/4\/Comedy"},{"mal_id":10,"type":"anime","name":"Fantasy","url":"https:\/\/myanimelist.net\/anime\/genre\/10\/Fantasy"}],"explicit_genres":[],"themes":[{"mal_id":62,"type":"anime","name":"Isekai","url":"https:\/\/myanimelist.net\/anime\/genre\/62\/Isekai"},{"mal_id":72,"type":"anime","name":"Reincarnation","url":"https:\/\/myanimelist.net\/anime\/genre\/72\/Reincarnation"}],"demographics":[]},{"mal_id":59068,"url":"https:\/\/myanimelist.net\/anime\/59068\/Dungeon_Meshi_2nd_Season","images":{"jpg":{"image_url":"https:\/\/myanimelist.net\/images\/anime\/1796\/143572.jpg","small_image_url":"https:\/\/myanimelist.net\/images\/anime\/1796\/143572t.jpg","large_image_url":"https:\/\/myanimelist.net\/images\/anime\/1796\/143572l.jpg"},"webp":{"image_url":"https:\/\/myanimelist.net\/images\/anime\/1796\/143572.webp","small_image_url":"https:\/\/myanimelist.net\/images\/anime\/1796\/143572t.webp","large_image_url":"https:\/\/myanimelist.net\/images\/anime\/1796\/143572l.webp"}},"trailer":{"youtube_id":null,"url":null,"embed_url":"https:\/\/www.youtube-nocookie.com\/embed\/qRrXciq7-88?enablejsapi=1&wmode=opaque&autoplay=1","images":{"image_url":null,"small_image_url":null,"medium_image_url":null,"large_image_url":null,"maximum_image_url":null}},"approved":true,"titles":[{"type":"Default","title":"Dungeon Meshi 2nd Season"},{"type":"Synonym","title":"Dungeon Food"},{"type":"Japanese","title":"\u30c0\u30f3\u30b8\u30e7\u30f3\u98ef \u7b2c2\u671f"},{"type":"English","title":"Delicious in Dungeon Season 2"}],"title":"Dungeon Meshi 2nd Season","title_english":"Delicious in Dungeon Season 2","title_japanese":"\u30c0\u30f3\u30b8\u30e7\u30f3\u98ef \u7b2c2\u671f","title_synonyms":["Dungeon Food"],"type":"TV","source":"Manga","episodes":null,"status":"Not yet aired","airing":false,"aired":{"from":null,"to":null,"prop":{"from":{"day":null,"month":null,"year":null},"to":{"day":null,"month":null,"year":null}},"string":"Not available"},"duration":"Unknown","rating":"R - 17+ (violence & profanity)","score":null,"scored_by":null,"rank":null,"popularity":2247,"members":109260,"favorites":378,"synopsis":"Second season of Dungeon Meshi.","background":"","season":null,"year":null,"broadcast":{"day":null,"time":null,"timezone":null,"string":"Unknown"},"producers":[{"mal_id":1696,"type":"anime","name":"Kadokawa","url":"https:\/\/myanimelist.net\/anime\/producer\/1696\/Kadokawa"}],"licensors":[],"studios":[],"genres":[{"mal_id":2,"type":"anime","name":"Adventure","url":"https:\/\/myanimelist.net\/anime\/genre\/2\/Adventure"},{"mal_id":4,"type":"anime","name":"Comedy","url":"https:\/\/myanimelist.net\/anime\/genre\/4\/Comedy"},{"mal_id":10,"type":"anime","name":"Fantasy","url":"https:\/\/myanimelist.net\/anime\/genre\/10\/Fantasy"},{"mal_id":47,"type":"anime","name":"Gourmet","url":"https:\/\/myanimelist.net\/anime\/genre\/47\/Gourmet"}],"explicit_genres":[],"themes":[],"demographics":[{"mal_id":42,"type":"anime","name":"Seinen","url":"https:\/\/myanimelist.net\/anime\/genre\/42\/Seinen"}]},{"mal_id":61006,"url":"https:\/\/myanimelist.net\/anime\/61006\/Bocchi_the_Rock_2nd_Season","images":{"jpg":{"image_url":"https:\/\/myanimelist.net\/images\/anime\/1142\/148003.jpg","small_image_url":"https:\/\/myanimelist.net\/images\/anime\/1142\/148003t.jpg","large_image_url":"https:\/\/myanimelist.net\/images\/anime\/1142\/148003l.jpg"},"webp":{"image_url":"https:\/\/myanimelist.net\/images\/anime\/1142\/148003.webp","small_image_url":"https:\/\/myanimelist.net\/images\/anime\/1142\/148003t.webp","large_image_url":"https:\/\/myanimelist.net\/images\/anime\/1142\/148003l.webp"}},"trailer":{"youtube_id":null,"url":null,"embed_url":"https:\/\/www.youtube-nocookie.com\/embed\/2z5nOlwq9XU?enablejsapi=1&wmode=opaque&autoplay=1","images":{"image_url":null,"small_image_url":null,"medium_image_url":null,"large_image_url":null,"maximum_image_url":null}},"approved":true,"titles":[{"type":"Default","title":"Bocchi the Rock! 2nd Season"},{"type":"Japanese","title":"\u307c\u3063\u3061\u30fb\u3056\u30fb\u308d\u3063\u304f\uff01 2\u671f"},{"type":"English","title":"Bocchi the Rock! Season 2"}],"title":"Bocchi the Rock! 2nd Season","title_english":"Bocchi the Rock! Season 2","title_japanese":"\u307c\u3063\u3061\u30fb\u3056\u30fb\u308d\u3063\u304f\uff01 2\u671f","title_synonyms":[],"type":"TV","source":"4-koma manga","episodes":null,"status":"Not yet aired","airing":false,"aired":{"from":null,"to":null,"prop":{"from":{"day":null,"month":null,"year":null},"to":{"day":null,"month":null,"year":null}},"string":"Not available"},"duration":"Unknown","rating":"PG-13 - Teens 13 or older","score":null,"scored_by":null,"rank":null,"popularity":2287,"members":106672,"favorites":556,"synopsis":"Second season of Bocchi the Rock!.","background":"","season":null,"year":null,"broadcast":{"day":null,"time":null,"timezone":null,"string":"Unknown"},"producers":[],"licensors":[],"studios":[{"mal_id":1835,"type":"anime","name":"CloverWorks","url":"https:\/\/myanimelist.net\/anime\/producer\/1835\/CloverWorks"}],"genres":[{"mal_id":4,"type":"anime","name":"Comedy","url":"https:\/\/myanimelist.net\/anime\/genre\/4\/Comedy"}],"explicit_genres":[],"themes":[{"mal_id":52,"type":"anime","name":"CGDCT","url":"https:\/\/myanimelist.net\/anime\/genre\/52\/CGDCT"},{"mal_id":19,"type":"anime","name":"Music","url":"https:\/\/myanimelist.net\/anime\/genre\/19\/Music"}],"demographics":[]},{"mal_id":59873,"url":"https:\/\/myanimelist.net\/anime\/59873\/Tokidoki_Bosotto_Russia-go_de_Dereru_Tonari_no_Alya-san_Season_2","images":{"jpg":{"image_url":"https:\/\/myanimelist.net\/images\/anime\/1711\/156333.jpg","small_image_url":"https:\/\/myanimelist.net\/images\/anime\/1711\/156333t.jpg","large_image_url":"https:\/\/myanimelist.net\/images\/anime\/1711\/156333l.jpg"},"webp":{"image_url":"https:\/\/myanimelist.net\/images\/anime\/1711\/156333.webp","small_image_url":"https:\/\/myanimelist.net\/images\/anime\/1711\/156333t.webp","large_image_url":"https:\/\/myanimelist.net\/images\/anime\/1711\/156333l.webp"}},"trailer":{"youtube_id":null,"url":null,"embed_url":"https:\/\/www.youtube-nocookie.com\/embed\/xY68LJp3lm8?enablejsapi=1&wmode=opaque&autoplay=1","images":{"image_url":null,"small_image_url":null,"medium_image_url":null,"large_image_url":null,"maximum_image_url":null}},"approved":true,"titles":[{"type":"Default","title":"Tokidoki Bosotto Russia-go de Dereru Tonari no Alya-san Season 2"},{"type":"Synonym","title":"Alya Sometimes Hides Her Feelings in Russian Season 2"},{"type":"Japanese","title":"\u6642\u3005\u30dc\u30bd\u30c3\u3068\u30ed\u30b7\u30a2\u8a9e\u3067\u30c7\u30ec\u308b\u96a3\u306e\u30a2\u30fc\u30ea\u30e3\u3055\u3093 Season 2"},{"type":"English","title":"Alya Sometimes Hides Her Feelings in Russian Season 2"}],"title":"Tokidoki Bosotto Russia-go de Dereru Tonari no Alya-san Season 2","title_english":"Alya Sometimes Hides Her Feelings in Russian Season 2","title_japanese":"\u6642\u3005\u30dc\u30bd\u30c3\u3068\u30ed\u30b7\u30a2\u8a9e\u3067\u30c7\u30ec\u308b\u96a3\u306e\u30a2\u30fc\u30ea\u30e3\u3055\u3093 Season 2","title_synonyms":["Alya Sometimes Hides Her Feelings in Russian Season 2"],"type":"TV","source":"Light novel","episodes":null,"status":"Not yet aired","airing":false,"aired":{"from":"2027-01-01T00:00:00+00:00","to":null,"prop":{"from":{"day":1,"month":1,"year":2027},"to":{"day":null,"month":null,"year":null}},"string":"2027 to ?"},"duration":"Unknown","rating":"PG-13 - Teens 13 or older","score":null,"scored_by":null,"rank":null,"popularity":2409,"members":98605,"favorites":701,"synopsis":"Second season of Tokidoki Bosotto Russia-go de Dereru Tonari no Alya-san.","background":"","season":null,"year":null,"broadcast":{"day":null,"time":null,"timezone":null,"string":"Unknown"},"producers":[{"mal_id":1696,"type":"anime","name":"Kadokawa","url":"https:\/\/myanimelist.net\/anime\/producer\/1696\/Kadokawa"}],"licensors":[],"studios":[{"mal_id":95,"type":"anime","name":"Doga Kobo","url":"https:\/\/myanimelist.net\/anime\/producer\/95\/Doga_Kobo"}],"genres":[{"mal_id":4,"type":"anime","name":"Comedy","url":"https:\/\/myanimelist.net\/anime\/genre\/4\/Comedy"},{"mal_id":22,"type":"anime","name":"Romance","url":"https:\/\/myanimelist.net\/anime\/genre\/22\/Romance"}],"explicit_genres":[],"themes":[{"mal_id":23,"type":"anime","name":"School","url":"https:\/\/myanimelist.net\/anime\/genre\/23\/School"}],"demographics":[]},{"mal_id":61987,"url":"https:\/\/myanimelist.net\/anime\/61987\/Kusuriya_no_Hitorigoto_3rd_Season","images":{"jpg":{"image_url":"https:\/\/myanimelist.net\/images\/anime\/1862\/152811.jpg","small_image_url":"https:\/\/myanimelist.net\/images\/anime\/1862\/152811t.jpg","large_image_url":"https:\/\/myanimelist.net\/images\/anime\/1862\/152811l.jpg"},"webp":{"image_url":"https:\/\/myanimelist.net\/images\/anime\/1862\/152811.webp","small_image_url":"https:\/\/myanimelist.net\/images\/anime\/1862\/152811t.webp","large_image_url":"https:\/\/myanimelist.net\/images\/anime\/1862\/152811l.webp"}},"trailer":{"youtube_id":null,"url":null,"embed_url":"https:\/\/www.youtube-nocookie.com\/embed\/g1pKfngmcAM?enablejsapi=1&wmode=opaque&autoplay=1","images":{"image_url":null,"small_image_url":null,"medium_image_url":null,"large_image_url":null,"maximum_image_url":null}},"approved":true,"titles":[{"type":"Default","title":"Kusuriya no Hitorigoto 3rd Season"},{"type":"Synonym","title":"The Pharmacist's Monologue"},{"type":"Synonym","title":"Drugstore Soliloquy"},{"type":"Japanese","title":"\u85ac\u5c4b\u306e\u3072\u3068\u308a\u3054\u3068 \u7b2c3\u671f"},{"type":"English","title":"The Apothecary Diaries Season 3"}],"title":"Kusuriya no Hitorigoto 3rd Season","title_english":"The Apothecary Diaries Season 3","title_japanese":"\u85ac\u5c4b\u306e\u3072\u3068\u308a\u3054\u3068 \u7b2c3\u671f","title_synonyms":["The Pharmacist's Monologue","Drugstore Soliloquy"],"type":"TV","source":"Light novel","episodes":null,"status":"Not yet aired","airing":false,"aired":{"from":"2026-10-01T00:00:00+00:00","to":null,"prop":{"from":{"day":1,"month":10,"year":2026},"to":{"day":null,"month":null,"year":null}},"string":"Oct 2026 to ?"},"duration":"Unknown","rating":"PG-13 - Teens 13 or older","score":null,"scored_by":null,"rank":null,"popularity":2529,"members":91358,"favorites":237,"synopsis":"Third season of  Kusuriya no Hitorigoto.","background":"","season":"fall","year":2026,"broadcast":{"day":null,"time":null,"timezone":null,"string":"Unknown"},"producers":[],"licensors":[],"studios":[],"genres":[{"mal_id":8,"type":"anime","name":"Drama","url":"https:\/\/myanimelist.net\/anime\/genre\/8\/Drama"},{"mal_id":7,"type":"anime","name":"Mystery","url":"https:\/\/myanimelist.net\/anime\/genre\/7\/Mystery"}],"explicit_genres":[],"themes":[{"mal_id":13,"type":"anime","name":"Historical","url":"https:\/\/myanimelist.net\/anime\/genre\/13\/Historical"},{"mal_id":67,"type":"anime","name":"Medical","url":"https:\/\/myanimelist.net\/anime\/genre\/67\/Medical"}],"demographics":[]},{"mal_id":56732,"url":"https:\/\/myanimelist.net\/anime\/56732\/Sekai_Saikou_no_Ansatsusha_Isekai_Kizoku_ni_Tensei_suru_2nd_Season","images":{"jpg":{"image_url":"https:\/\/myanimelist.net\/images\/anime\/1801\/151244.jpg","small_image_url":"https:\/\/myanimelist.net\/images\/anime\/1801\/151244t.jpg","large_image_url":"https:\/\/myanimelist.net\/images\/anime\/1801\/151244l.jpg"},"webp":{"image_url":"https:\/\/myanimelist.net\/images\/anime\/1801\/151244.webp","small_image_url":"https:\/\/myanimelist.net\/images\/anime\/1801\/151244t.webp","large_image_url":"https:\/\/myanimelist.net\/images\/anime\/1801\/151244l.webp"}},"trailer":{"youtube_id":null,"url":null,"embed_url":null,"images":{"image_url":null,"small_image_url":null,"medium_image_url":null,"large_image_url":null,"maximum_image_url":null}},"approved":true,"titles":[{"type":"Default","title":"Sekai Saikou no Ansatsusha, Isekai Kizoku ni Tensei suru 2nd Season"},{"type":"Synonym","title":"The world's best assassin"},{"type":"Synonym","title":"To reincarnate in a different world aristocrat"},{"type":"Synonym","title":"Ansatsu Kizoku Season 2"},{"type":"Japanese","title":"\u4e16\u754c\u6700\u9ad8\u306e\u6697\u6bba\u8005\u3001\u7570\u4e16\u754c\u8cb4\u65cf\u306b\u8ee2\u751f\u3059\u308b \u7b2c2\u671f"},{"type":"English","title":"The World's Finest Assassin Gets Reincarnated in Another World as an Aristocrat Season 2"}],"title":"Sekai Saikou no Ansatsusha, Isekai Kizoku ni Tensei suru 2nd Season","title_english":"The World's Finest Assassin Gets Reincarnated in Another World as an Aristocrat Season 2","title_japanese":"\u4e16\u754c\u6700\u9ad8\u306e\u6697\u6bba\u8005\u3001\u7570\u4e16\u754c\u8cb4\u65cf\u306b\u8ee2\u751f\u3059\u308b \u7b2c2\u671f","title_synonyms":["The world's best assassin","To reincarnate in a different world aristocrat","Ansatsu Kizoku Season 2"],"type":"TV","source":"Light novel","episodes":null,"status":"Not yet aired","airing":false,"aired":{"from":null,"to":null,"prop":{"from":{"day":null,"month":null,"year":null},"to":{"day":null,"month":null,"year":null}},"string":"Not available"},"duration":"Unknown","rating":"PG-13 - Teens 13 or older","score":null,"scored_by":null,"rank":null,"popularity":2660,"members":84553,"favorites":316,"synopsis":"Season two of Sekai Saikou no Ansatsusha, Isekai Kizoku ni Tensei suru","background":"","season":null,"year":null,"broadcast":{"day":null,"time":null,"timezone":null,"string":"Unknown"},"producers":[],"licensors":[],"studios":[],"genres":[{"mal_id":1,"type":"anime","name":"Action","url":"https:\/\/myanimelist.net\/anime\/genre\/1\/Action"},{"mal_id":8,"type":"anime","name":"Drama","url":"https:\/\/myanimelist.net\/anime\/genre\/8\/Drama"},{"mal_id":10,"type":"anime","name":"Fantasy","url":"https:\/\/myanimelist.net\/anime\/genre\/10\/Fantasy"},{"mal_id":7,"type":"anime","name":"Mystery","url":"https:\/\/myanimelist.net\/anime\/genre\/7\/Mystery"},{"mal_id":22,"type":"anime","name":"Romance","url":"https:\/\/myanimelist.net\/anime\/genre\/22\/Romance"}],"explicit_genres":[],"themes":[{"mal_id":62,"type":"anime","name":"Isekai","url":"https:\/\/myanimelist.net\/anime\/genre\/62\/Isekai"},{"mal_id":72,"type":"anime","name":"Reincarnation","url":"https:\/\/myanimelist.net\/anime\/genre\/72\/Reincarnation"}],"demographics":[]}]}